<?xml version="1.0" encoding="UTF-8" standalone="no"?>
<!-- Created with Inkscape (http://www.inkscape.org/) -->

<svg
   width="108.93793mm"
   height="108.93792mm"
   viewBox="0 0 108.93793 108.93792"
   version="1.1"
   id="svg195"
   xmlns:inkscape="http://www.inkscape.org/namespaces/inkscape"
   xmlns:sodipodi="http://sodipodi.sourceforge.net/DTD/sodipodi-0.dtd"
   xmlns="http://www.w3.org/2000/svg"
   xmlns:svg="http://www.w3.org/2000/svg">
  <sodipodi:namedview
     id="namedview197"
     pagecolor="#ffffff"
     bordercolor="#999999"
     borderopacity="1"
     inkscape:showpageshadow="0"
     inkscape:pageopacity="0"
     inkscape:pagecheckerboard="0"
     inkscape:deskcolor="#d1d1d1"
     inkscape:document-units="mm"
     showgrid="false" />
  <defs
     id="defs192" />
  <g
     inkscape:label="Layer 1"
     inkscape:groupmode="layer"
     id="layer1"
     transform="translate(-59.999788,-65.499792)">
    <g
       id="g1602"
       transform="matrix(0.26458333,0,0,0.26458333,-78.478531,9.8606305)"
       inkscape:export-filename="g1602.webp"
       inkscape:export-xdpi="96"
       inkscape:export-ydpi="96">
      <path
         id="path1598"
         style="opacity:1;fill:#000000;fill-opacity:1;stroke:none;stroke-width:21.4751;stroke-linejoin:bevel;stroke-opacity:1"
         d="m 594.63867,261.36914 a 182.09895,182.09895 0 0 0 -68.90234,142.15234 182.09895,182.09895 0 0 0 8.93164,55.47461 c 9.20133,6.46423 17.43125,14.10044 25.18359,22.24805 3.54092,3.72633 6.90939,7.48218 10.60742,11.09375 8.04119,7.90844 16.06906,15.73028 24.32422,23.33789 10.66292,9.84854 21.99513,18.96716 33.82813,27.38281 5.31481,3.77995 10.64517,7.64519 15.88867,11.52539 4.42679,3.22384 9.29285,4.87338 14.71484,5.10547 4.09159,0.19196 8.23972,-0.33132 12.25782,-1.09765 8.99448,-1.60622 17.11314,-5.27153 24.78515,-10.00782 4.1575,-2.55475 8.25509,-5.45152 12.36914,-8.26367 8.52784,-5.93965 17.54335,-11.0782 27.07617,-15.24609 3.28717,-1.43721 6.57482,-2.87624 9.76172,-4.38477 5.57373,-2.52904 10.91772,-5.37268 15.73047,-9.27343 3.25605,-2.66735 6.58461,-5.43436 9.82617,-8.1875 5.15489,-4.48797 9.66499,-9.6613 12.8711,-15.76172 1.80978,-3.39395 3.80479,-6.73205 5.71484,-10.05469 6.52917,-10.98516 12.94523,-22.12591 21.36524,-31.8418 0.74216,-0.83121 1.38237,-1.73433 2.00976,-2.72265 0.28528,-0.40112 0.26922,-1.01588 0.45313,-2.01758 -5.53502,1.73173 -15.16136,-2.72608 -23.40039,1.47851 -4.47065,3.31357 -8.51102,7.08323 -12.53711,10.93946 -3.34077,3.21111 -6.76659,6.43839 -10.40821,9.43554 -9.68235,7.9876 -20.1815,14.78789 -30.68164,21.58985 -13.05749,8.38073 -26.13,16.67591 -39.1875,25.05664 -2.1573,1.33475 -4.18646,2.9133 -6.34375,4.24804 -5.98608,3.74582 -12.41963,4.83238 -19.21875,2.71485 -1.58892,-0.52604 -3.19153,-1.13817 -4.79492,-1.75 -8.63312,-3.57286 -16.08282,-9.02175 -22.51953,-15.78906 -3.44063,-3.65503 -6.09728,-7.88624 -8.10937,-12.48829 -1.20768,-2.97292 -0.6818,-4.55994 2.07617,-5.99609 2.02912,-1.04839 4.08805,-1.9262 6.11718,-2.97461 2.58631,-1.40716 5.01505,-3.22725 6.8125,-5.64844 2.66776,-3.53874 3.86018,-7.44803 3.99415,-11.88281 0.15061,-3.29043 0.29962,-6.57831 0.9082,-9.76953 1.68528,-8.31456 5.73515,-15.70545 10.26953,-22.82422 1.75403,-2.67864 4.3533,-4.00205 7.6582,-3.76562 2.31765,0.13832 4.53552,0.20517 6.82422,0.17187 8.72585,-0.0607 17.14871,-1.92181 25.65625,-3.79883 6.54863,-1.45817 12.98295,-3.07278 19.56055,-4.35937 7.60719,-1.46034 14.29363,-4.70744 20.0625,-9.74024 2.45597,-2.17935 4.89954,-4.44458 7.05469,-6.83789 6.02301,-6.66407 12.90387,-12.4133 20.24609,-17.53515 9.39923,-6.52792 19.34035,-7.76465 30.00586,-3.65235 1.70368,0.68315 3.40664,1.36635 5.18164,1.94922 6.3267,1.93253 12.60838,2.01756 18.82617,-0.35547 2.98742,-1.12187 6.08855,-1.55625 9.23633,-1.20507 2.70432,0.33779 5.32304,0.68954 8.02734,1.02734 3.06199,0.36566 6.18138,0.54511 9.3125,-0.24805 1.95891,-0.41883 3.76002,-1.25025 5.1875,-2.72656 4.33924,-4.61504 6.47207,-10.27089 7.375,-16.42383 0.18283,-1.53099 0.0799,-3.18999 -1.00976,-4.41797 -2.07908,-2.38464 -3.98453,-4.79803 -6.5918,-6.65234 -4.82791,-3.50913 -9.58715,-7.1191 -14.34375,-10.72852 -4.341,-3.2383 -8.52323,-6.59046 -12.93555,-9.72851 -6.61847,-4.70706 -13.77913,-8.44016 -21.72265,-10.54102 -3.23467,-0.866 -5.99757,-2.60666 -8.19141,-5.14844 -6.22277,-7.06817 -13.41901,-13.09026 -20.91211,-18.79687 -5.58778,-4.35156 -11.26081,-8.68818 -16.91992,-12.93945 -1.51868,-1.15559 -3.2648,-2.09602 -4.95508,-3.22266 -2.17718,-1.39739 -5.35111,-0.86291 -7.39258,1.1582 -1.35615,1.37603 -2.24201,2.93886 -2.72461,4.78516 -3.26552,12.02276 -2.41023,23.3481 5.07813,33.73242 0.58827,0.87139 1.16144,1.65824 1.57812,2.5586 0.78992,1.54329 0.54823,2.72981 -0.76562,3.83398 -1.31379,1.10415 -2.757,1.96898 -4.18555,2.91602 -4.07169,2.54028 -8.28955,3.16235 -13.02734,1.75586 -26.90907,-7.81266 -51.36811,-19.92295 -72.79102,-38.10352 -17.42513,-14.88436 -37.55355,-23.83999 -60.14843,-27.52734 -3.32937,-0.55394 -6.67547,-0.93225 -10.02735,-1.23438 z" />
      <circle
         style="opacity:1;fill:none;fill-opacity:1;stroke:#000000;stroke-width:24.6803;stroke-linejoin:bevel;stroke-opacity:1"
         id="circle1600"
         cx="729.24957"
         cy="416.15668"
         r="193.52679" />
    </g>
  </g>
</svg>
